<svg xmlns="http://www.w3.org/2000/svg" width="7.68pt" height="7.68pt" viewBox="0 0 7.68 7.68" stroke="currentColor" stroke-linecap="square" stroke-width="0.72" fill="none">
<defs/>
<circle transform="translate(0.24, 0.24)" r="3.6" cx="3.6" cy="3.6" stroke-width="0.4"/>
<path transform="translate(1.8, 2.79)" d="M0 0 L3.3 0"/>
<path transform="translate(1.8, 4.9)" d="M0 0 L3.3 0"/>
<path transform="translate(1.8, 3.24)" stroke-linecap="round" d="M1.8 -0.3 L0 1.5"/>
<path transform="translate(4.2, 4.4)" d="M0 0 L0 0.36"/>
<g stroke-linecap="round">
<path transform="translate(5.5, 4.9)" d="M0 0 L0.1 -0.05 L0.2 -0.1 L0.3 -0.2 L0.4 -0.3"/>
<path transform="translate(5.5, 2.79)" d="M0 0 L0.1 0.05 L0.2 0.1 L0.3 0.2 L0.4 0.3"/>
<path transform="translate(6, 3.2)" d="M0 0 L0 1.3"/>
</g>
</svg>
